{"links":{"first":"https://example1--backend.local-backofyourhand--backend.com:7200/api/rounds?filter%5Bstatus%5D=completed&filter%5Buserorganization.id%5D=01KMGVW94RF3CYDTNMZSMBF596&include=area%2Cuserorganization.user&page%5Bnumber%5D=1&page%5Bsize%5D=20&sort=-createdAt","last":"https://example1--backend.local-backofyourhand--backend.com:7200/api/rounds?filter%5Bstatus%5D=completed&filter%5Buserorganization.id%5D=01KMGVW94RF3CYDTNMZSMBF596&include=area%2Cuserorganization.user&page%5Bnumber%5D=2&page%5Bsize%5D=20&sort=-createdAt","next":"https://example1--backend.local-backofyourhand--backend.com:7200/api/rounds?filter%5Bstatus%5D=completed&filter%5Buserorganization.id%5D=01KMGVW94RF3CYDTNMZSMBF596&include=area%2Cuserorganization.user&page%5Bnumber%5D=2&page%5Bsize%5D=20&sort=-createdAt","prev":null},"data":[{"type":"round","id":"01KMGVWG78JHJB016PVKBD4BXG","attributes":{"deletedAt":null,"createdAt":"2026-03-21T00:38:49.832506Z","lastUpdatedAt":"2026-03-24T21:26:49.832876Z","duration":0,"endedAt":"2026-03-24T21:26:49.835309Z","extra":null,"questionAmount":15,"score":91.0,"startedAt":"2026-03-24T21:26:49.832922Z","status":"completed"},"relationships":{"area":{"data":{"type":"area","id":"01KMGVW6KE7WBJKBEDQ73EB0E6"}},"userorganization":{"data":{"type":"userOrganization","id":"01KMGVW94RF3CYDTNMZSMBF596"}}}},{"type":"round","id":"01KMGVWG73V3DRF9Q1RB7T2VCF","attributes":{"deletedAt":null,"createdAt":"2026-03-19T03:55:49.827071Z","lastUpdatedAt":"2026-03-24T21:26:49.827340Z","duration":0,"endedAt":"2026-03-24T21:26:49.829382Z","extra":null,"questionAmount":50,"score":88.0,"startedAt":"2026-03-24T21:26:49.827511Z","status":"completed"},"relationships":{"area":{"data":{"type":"area","id":"01KMGVW6H3TXAY3WA20KBQD6X0"}},"userorganization":{"data":{"type":"userOrganization","id":"01KMGVW94RF3CYDTNMZSMBF596"}}}},{"type":"round","id":"01KMGVWG6XRF9560WA4GFQDPSR","attributes":{"deletedAt":null,"createdAt":"2026-03-16T07:12:49.821279Z","lastUpdatedAt":"2026-03-24T21:26:49.821616Z","duration":0,"endedAt":"2026-03-24T21:26:49.824311Z","extra":null,"questionAmount":5,"score":84.0,"startedAt":"2026-03-24T21:26:49.821656Z","status":"completed"},"relationships":{"area":{"data":{"type":"area","id":"01KMGVW6FF31QFTCQWMG5TVESE"}},"userorganization":{"data":{"type":"userOrganization","id":"01KMGVW94RF3CYDTNMZSMBF596"}}}},{"type":"round","id":"01KMGVWG6QZCJXT1VGKN5YJNZ2","attributes":{"deletedAt":null,"createdAt":"2026-03-14T09:29:49.815176Z","lastUpdatedAt":"2026-03-24T21:26:49.815495Z","duration":0,"endedAt":"2026-03-24T21:26:49.818024Z","extra":null,"questionAmount":20,"score":81.0,"startedAt":"2026-03-24T21:26:49.815558Z","status":"completed"},"relationships":{"area":{"data":{"type":"area","id":"01KMGVW54RSMH1Z07FV8S8NV1F"}},"userorganization":{"data":{"type":"userOrganization","id":"01KMGVW94RF3CYDTNMZSMBF596"}}}},{"type":"round","id":"01KMGVWG6HBA6JZBJWE2E6NBXC","attributes":{"deletedAt":null,"createdAt":"2026-03-12T12:46:49.809874Z","lastUpdatedAt":"2026-03-24T21:26:49.810178Z","duration":0,"endedAt":"2026-03-24T21:26:49.812605Z","extra":null,"questionAmount":100,"score":78.0,"startedAt":"2026-03-24T21:26:49.810282Z","status":"completed"},"relationships":{"area":{"data":{"type":"area","id":"01KMGVW532W2C4BNJE286Q4TN5"}},"userorganization":{"data":{"type":"userOrganization","id":"01KMGVW94RF3CYDTNMZSMBF596"}}}},{"type":"round","id":"01KMGVWG6C2YX781D81D1T3YE5","attributes":{"deletedAt":null,"createdAt":"2026-03-09T16:03:49.804476Z","lastUpdatedAt":"2026-03-24T21:26:49.804919Z","duration":0,"endedAt":"2026-03-24T21:26:49.806794Z","extra":null,"questionAmount":5,"score":45.0,"startedAt":"2026-03-24T21:26:49.804966Z","status":"completed"},"relationships":{"area":{"data":{"type":"area","id":"01KMGVW6KE7WBJKBEDQ73EB0E6"}},"userorganization":{"data":{"type":"userOrganization","id":"01KMGVW94RF3CYDTNMZSMBF596"}}}},{"type":"round","id":"01KMGVWG66A1MYDCCM8PR7GVHJ","attributes":{"deletedAt":null,"createdAt":"2026-03-07T19:20:49.798522Z","lastUpdatedAt":"2026-03-24T21:26:49.798787Z","duration":0,"endedAt":"2026-03-24T21:26:49.801746Z","extra":null,"questionAmount":20,"score":42.0,"startedAt":"2026-03-24T21:26:49.798885Z","status":"completed"},"relationships":{"area":{"data":{"type":"area","id":"01KMGVW6H3TXAY3WA20KBQD6X0"}},"userorganization":{"data":{"type":"userOrganization","id":"01KMGVW94RF3CYDTNMZSMBF596"}}}},{"type":"round","id":"01KMGVWG61VY4BJRCHHC6DXHBH","attributes":{"deletedAt":null,"createdAt":"2026-03-03T21:37:49.792965Z","lastUpdatedAt":"2026-03-24T21:26:49.793343Z","duration":0,"endedAt":"2026-03-24T21:26:49.795847Z","extra":null,"questionAmount":100,"score":92.5,"startedAt":"2026-03-24T21:26:49.793386Z","status":"completed"},"relationships":{"area":{"data":{"type":"area","id":"01KMGVW6FF31QFTCQWMG5TVESE"}},"userorganization":{"data":{"type":"userOrganization","id":"01KMGVW94RF3CYDTNMZSMBF596"}}}},{"type":"round","id":"01KMGVWG5T6QEEX7D45D92K1CD","attributes":{"deletedAt":null,"createdAt":"2026-03-02T00:54:49.786731Z","lastUpdatedAt":"2026-03-24T21:26:49.787117Z","duration":0,"endedAt":"2026-03-24T21:26:49.789888Z","extra":null,"questionAmount":15,"score":89.5,"startedAt":"2026-03-24T21:26:49.787161Z","status":"completed"},"relationships":{"area":{"data":{"type":"area","id":"01KMGVW54RSMH1Z07FV8S8NV1F"}},"userorganization":{"data":{"type":"userOrganization","id":"01KMGVW94RF3CYDTNMZSMBF596"}}}},{"type":"round","id":"01KMGVWG5M4YPQ5CGWEN12QX4Y","attributes":{"deletedAt":null,"createdAt":"2026-02-28T04:11:49.780057Z","lastUpdatedAt":"2026-03-24T21:26:49.780401Z","duration":0,"endedAt":"2026-03-24T21:26:49.783530Z","extra":null,"questionAmount":50,"score":85.5,"startedAt":"2026-03-24T21:26:49.780480Z","status":"completed"},"relationships":{"area":{"data":{"type":"area","id":"01KMGVW532W2C4BNJE286Q4TN5"}},"userorganization":{"data":{"type":"userOrganization","id":"01KMGVW94RF3CYDTNMZSMBF596"}}}},{"type":"round","id":"01KMGVWG5FB7N86G94KDRW5WHS","attributes":{"deletedAt":null,"createdAt":"2026-02-25T06:28:49.775193Z","lastUpdatedAt":"2026-03-24T21:26:49.775565Z","duration":0,"endedAt":"2026-03-24T21:26:49.777361Z","extra":null,"questionAmount":100,"score":52.5,"startedAt":"2026-03-24T21:26:49.775600Z","status":"completed"},"relationships":{"area":{"data":{"type":"area","id":"01KMGVW6KE7WBJKBEDQ73EB0E6"}},"userorganization":{"data":{"type":"userOrganization","id":"01KMGVW94RF3CYDTNMZSMBF596"}}}},{"type":"round","id":"01KMGVWG59G5P3MJWT45P32SY4","attributes":{"deletedAt":null,"createdAt":"2026-02-23T09:45:49.769221Z","lastUpdatedAt":"2026-03-24T21:26:49.769810Z","duration":0,"endedAt":"2026-03-24T21:26:49.771781Z","extra":null,"questionAmount":15,"score":49.5,"startedAt":"2026-03-24T21:26:49.769848Z","status":"completed"},"relationships":{"area":{"data":{"type":"area","id":"01KMGVW6H3TXAY3WA20KBQD6X0"}},"userorganization":{"data":{"type":"userOrganization","id":"01KMGVW94RF3CYDTNMZSMBF596"}}}},{"type":"round","id":"01KMGVWG5300E0FRSE8J7MSFMX","attributes":{"deletedAt":null,"createdAt":"2026-02-20T13:02:49.763881Z","lastUpdatedAt":"2026-03-24T21:26:49.764196Z","duration":0,"endedAt":"2026-03-24T21:26:49.766185Z","extra":null,"questionAmount":50,"score":46.5,"startedAt":"2026-03-24T21:26:49.764236Z","status":"completed"},"relationships":{"area":{"data":{"type":"area","id":"01KMGVW6FF31QFTCQWMG5TVESE"}},"userorganization":{"data":{"type":"userOrganization","id":"01KMGVW94RF3CYDTNMZSMBF596"}}}},{"type":"round","id":"01KMGVWG4Z87YMXRMYXPBC4HVC","attributes":{"deletedAt":null,"createdAt":"2026-02-18T16:19:49.759577Z","lastUpdatedAt":"2026-03-24T21:26:49.759853Z","duration":0,"endedAt":"2026-03-24T21:26:49.761705Z","extra":null,"questionAmount":5,"score":43.5,"startedAt":"2026-03-24T21:26:49.759893Z","status":"completed"},"relationships":{"area":{"data":{"type":"area","id":"01KMGVW54RSMH1Z07FV8S8NV1F"}},"userorganization":{"data":{"type":"userOrganization","id":"01KMGVW94RF3CYDTNMZSMBF596"}}}},{"type":"round","id":"01KMGVWG4SVXBQT5VHF9RCT6X1","attributes":{"deletedAt":null,"createdAt":"2026-02-16T18:36:49.753498Z","lastUpdatedAt":"2026-03-24T21:26:49.753816Z","duration":0,"endedAt":"2026-03-24T21:26:49.756128Z","extra":null,"questionAmount":20,"score":95.0,"startedAt":"2026-03-24T21:26:49.753873Z","status":"completed"},"relationships":{"area":{"data":{"type":"area","id":"01KMGVW532W2C4BNJE286Q4TN5"}},"userorganization":{"data":{"type":"userOrganization","id":"01KMGVW94RF3CYDTNMZSMBF596"}}}},{"type":"round","id":"01KMGVWG4JDBKPBYAP5DNJBKKS","attributes":{"deletedAt":null,"createdAt":"2026-02-12T21:53:49.746370Z","lastUpdatedAt":"2026-03-24T21:26:49.746781Z","duration":0,"endedAt":"2026-03-24T21:26:49.749578Z","extra":null,"questionAmount":50,"score":60.0,"startedAt":"2026-03-24T21:26:49.746823Z","status":"completed"},"relationships":{"area":{"data":{"type":"area","id":"01KMGVW6KE7WBJKBEDQ73EB0E6"}},"userorganization":{"data":{"type":"userOrganization","id":"01KMGVW94RF3CYDTNMZSMBF596"}}}},{"type":"round","id":"01KMGVWG4D363DNR723C6WV2TM","attributes":{"deletedAt":null,"createdAt":"2026-02-11T01:10:49.741051Z","lastUpdatedAt":"2026-03-24T21:26:49.741399Z","duration":0,"endedAt":"2026-03-24T21:26:49.743412Z","extra":null,"questionAmount":5,"score":57.0,"startedAt":"2026-03-24T21:26:49.741437Z","status":"completed"},"relationships":{"area":{"data":{"type":"area","id":"01KMGVW6H3TXAY3WA20KBQD6X0"}},"userorganization":{"data":{"type":"userOrganization","id":"01KMGVW94RF3CYDTNMZSMBF596"}}}},{"type":"round","id":"01KMGVWG475MN7BPWJBXMASSY4","attributes":{"deletedAt":null,"createdAt":"2026-02-08T03:27:49.735896Z","lastUpdatedAt":"2026-03-24T21:26:49.736229Z","duration":0,"endedAt":"2026-03-24T21:26:49.738302Z","extra":null,"questionAmount":20,"score":54.0,"startedAt":"2026-03-24T21:26:49.736268Z","status":"completed"},"relationships":{"area":{"data":{"type":"area","id":"01KMGVW6FF31QFTCQWMG5TVESE"}},"userorganization":{"data":{"type":"userOrganization","id":"01KMGVW94RF3CYDTNMZSMBF596"}}}},{"type":"round","id":"01KMGVWG43SVVP6CYTM3DYSBB9","attributes":{"deletedAt":null,"createdAt":"2026-02-06T06:44:49.731361Z","lastUpdatedAt":"2026-03-24T21:26:49.731616Z","duration":0,"endedAt":"2026-03-24T21:26:49.733598Z","extra":null,"questionAmount":100,"score":51.0,"startedAt":"2026-03-24T21:26:49.731651Z","status":"completed"},"relationships":{"area":{"data":{"type":"area","id":"01KMGVW54RSMH1Z07FV8S8NV1F"}},"userorganization":{"data":{"type":"userOrganization","id":"01KMGVW94RF3CYDTNMZSMBF596"}}}},{"type":"round","id":"01KMGVWG3YXH0CC21Y8V08FAH8","attributes":{"deletedAt":null,"createdAt":"2026-02-04T10:01:49.726623Z","lastUpdatedAt":"2026-03-24T21:26:49.726926Z","duration":0,"endedAt":"2026-03-24T21:26:49.729200Z","extra":null,"questionAmount":15,"score":48.0,"startedAt":"2026-03-24T21:26:49.726966Z","status":"completed"},"relationships":{"area":{"data":{"type":"area","id":"01KMGVW532W2C4BNJE286Q4TN5"}},"userorganization":{"data":{"type":"userOrganization","id":"01KMGVW94RF3CYDTNMZSMBF596"}}}}],"included":[{"type":"area","id":"01KMGVW532W2C4BNJE286Q4TN5","attributes":{"deletedAt":null,"createdAt":"2026-03-24T21:26:38.435403Z","lastUpdatedAt":"2026-03-24T21:26:38.435414Z","name":"Albany Fire","shape":{"type":"MultiPolygon","coordinates":[[[[-85.14052,40.30739],[-85.13214,40.30749],[-85.12377,40.30759],[-85.1154,40.30768],[-85.10703,40.30777],[-85.10017,40.30784],[-85.09352,40.30789],[-85.0933,40.3079],[-85.09319,40.30237],[-85.09308,40.29684],[-85.09303,40.29376],[-85.09293,40.28946],[-85.09283,40.28517],[-85.09399,40.28518],[-85.09538,40.28504],[-85.09569,40.285],[-85.09673,40.28503],[-85.09749,40.28491],[-85.09761,40.28497],[-85.0979,40.28492],[-85.09831,40.28492],[-85.0984,40.28494],[-85.09849,40.28496],[-85.09879,40.2851],[-85.09895,40.28526],[-85.09914,40.28547],[-85.09927,40.28563],[-85.09938,40.28571],[-85.09951,40.28575],[-85.09963,40.28576],[-85.09978,40.28575],[-85.10005,40.28567],[-85.10031,40.28546],[-85.10055,40.28521],[-85.10062,40.28502],[-85.10061,40.28479],[-85.10068,40.28467],[-85.10098,40.28438],[-85.10199,40.28354],[-85.10227,40.28327],[-85.10279,40.28231],[-85.10303,40.28143],[-85.10318,40.28079],[-85.10318,40.28053],[-85.10314,40.28034],[-85.10299,40.28013],[-85.10281,40.27988],[-85.1026,40.27964],[-85.10249,40.27939],[-85.10249,40.27929],[-85.1025,40.27926],[-85.10258,40.27918],[-85.10218,40.27919],[-85.10215,40.279],[-85.10217,40.27883],[-85.10223,40.27883],[-85.10443,40.279],[-85.10465,40.27912],[-85.10473,40.27916],[-85.10496,40.27936],[-85.10512,40.27955],[-85.10527,40.27969],[-85.10553,40.27983],[-85.10605,40.28014],[-85.10639,40.28028],[-85.10672,40.28035],[-85.10686,40.28037],[-85.1077,40.28037],[-85.10885,40.28031],[-85.10986,40.28033],[-85.11104,40.2803],[-85.11164,40.28],[-85.11219,40.27959],[-85.11281,40.27929],[-85.11275,40.27891],[-85.11231,40.27844],[-85.1121,40.2781],[-85.11276,40.27785],[-85.11335,40.27791],[-85.11365,40.27794],[-85.11436,40.27824],[-85.11486,40.27863],[-85.1148,40.27892],[-85.11471,40.27917],[-85.11458,40.27956],[-85.11463,40.28011],[-85.11507,40.28049],[-85.11523,40.28087],[-85.11578,40.28094],[-85.11633,40.28101],[-85.11672,40.28097],[-85.11689,40.28046],[-85.11734,40.27974],[-85.11856,40.27953],[-85.11928,40.27971],[-85.11978,40.27975],[-85.12028,40.2798],[-85.12072,40.27976],[-85.12122,40.2795],[-85.12178,40.27934],[-85.12228,40.279],[-85.12289,40.27907],[-85.1234,40.27959],[-85.12375,40.27962],[-85.12408,40.27959],[-85.1246,40.27949],[-85.12521,40.27931],[-85.1261,40.27927],[-85.12687,40.27919],[-85.12742,40.27928],[-85.12795,40.27916],[-85.12876,40.27959],[-85.12945,40.27952],[-85.13016,40.27919],[-85.13053,40.27896],[-85.13103,40.27845],[-85.13054,40.27798],[-85.12998,40.27714],[-85.12993,40.27631],[-85.13023,40.27563],[-85.13046,40.27537],[-85.13072,40.27514],[-85.13056,40.27446],[-85.13086,40.27409],[-85.13199,40.27381],[-85.13248,40.27372],[-85.13296,40.27362],[-85.1334,40.27342],[-85.13385,40.27319],[-85.13451,40.27291],[-85.13507,40.27256],[-85.13578,40.27222],[-85.13631,40.2723],[-85.13689,40.27251],[-85.13801,40.27274],[-85.13874,40.27294],[-85.1399,40.27352],[-85.14046,40.27395],[-85.14087,40.27436],[-85.14124,40.27462],[-85.14154,40.2748],[-85.14182,40.27498],[-85.14235,40.2755],[-85.14273,40.27583],[-85.14305,40.27614],[-85.14345,40.27669],[-85.14372,40.27744],[-85.14381,40.2776],[-85.14399,40.27791],[-85.1444,40.27824],[-85.14504,40.27887],[-85.14524,40.27899],[-85.14684,40.28043],[-85.14723,40.28074],[-85.14753,40.28103],[-85.14799,40.28215],[-85.14839,40.28225],[-85.14831,40.27812],[-85.14824,40.27475],[-85.14817,40.27161],[-85.14811,40.26954],[-85.148,40.26428],[-85.15339,40.26429],[-85.15774,40.26429],[-85.16233,40.26428],[-85.16692,40.26426],[-85.17328,40.26428],[-85.18028,40.2643],[-85.18624,40.26429],[-85.19036,40.26424],[-85.19522,40.26419],[-85.19993,40.26413],[-85.20465,40.26407],[-85.21145,40.264],[-85.21748,40.2639002556391],[-85.21748,40.26392],[-85.21749,40.26392],[-85.21753,40.26612],[-85.21756,40.26796],[-85.21763,40.2706],[-85.21767,40.27524],[-85.21771,40.27714],[-85.21771,40.27715],[-85.2177,40.27715],[-85.2177,40.27719],[-85.21771,40.27719],[-85.21773,40.27845],[-85.21772,40.27845],[-85.21772,40.27848],[-85.21773,40.27848],[-85.21774,40.279],[-85.21776,40.28005],[-85.21776,40.28029],[-85.21775,40.28029],[-85.21775,40.28033],[-85.21776,40.28033],[-85.21778,40.28115],[-85.21782,40.28367],[-85.21782,40.28369],[-85.21781,40.28369],[-85.21781,40.28371],[-85.21782,40.28371],[-85.21783,40.28457],[-85.21794,40.29042],[-85.21794,40.29095],[-85.21794,40.29098],[-85.21793,40.29098],[-85.21793,40.29102],[-85.21794,40.29102],[-85.21794,40.29144],[-85.21796,40.29227],[-85.21797,40.29281],[-85.21798,40.29379],[-85.218,40.29531],[-85.21809,40.30014],[-85.21809,40.30019],[-85.21807,40.30019],[-85.21808,40.30024],[-85.21809,40.30024],[-85.21811,40.30115],[-85.21809,40.30115],[-85.21809,40.30119],[-85.21811,40.30119],[-85.21812,40.30212],[-85.21814,40.30339],[-85.21817,40.30532],[-85.21819985106258,40.306603595690824],[-85.21496,40.30662],[-85.20915,40.30669],[-85.20335,40.30676],[-85.19557,40.30684],[-85.18779,40.30692],[-85.18001,40.30699],[-85.17223,40.30707],[-85.16445,40.30715],[-85.15667,40.30722],[-85.14889,40.3073],[-85.14052,40.30739]]]]}},"relationships":{"parentArea":{"data":{"type":"area","id":"01KMGVW4GRVZZ1KJHZ9D5GFXXB"}}}},{"type":"area","id":"01KMGVW54RSMH1Z07FV8S8NV1F","attributes":{"deletedAt":null,"createdAt":"2026-03-24T21:26:38.489623Z","lastUpdatedAt":"2026-03-24T21:26:38.489632Z","name":"District 19 - Veazie","shape":{"type":"MultiPolygon","coordinates":[[[[-68.69619,44.84526],[-68.69621,44.84527],[-68.69656,44.84555],[-68.69764,44.84636],[-68.69802,44.84664],[-68.69897,44.84735],[-68.69914,44.84747],[-68.69966,44.84789],[-68.7008,44.84875],[-68.70117,44.84901],[-68.70263,44.85011],[-68.70409,44.85119],[-68.70555,44.85228],[-68.70701,44.85336],[-68.70847,44.85445],[-68.70992,44.85554],[-68.71138,44.85663],[-68.71284,44.85771],[-68.7143,44.8588],[-68.71576,44.85989],[-68.71655,44.86048],[-68.7169,44.86074],[-68.71722,44.86098],[-68.71724,44.86099],[-68.71868,44.86209],[-68.72015,44.86319],[-68.72076,44.86363],[-68.72088,44.86373],[-68.72212,44.86262],[-68.72339,44.8615],[-68.72417,44.86082],[-68.72467,44.86038],[-68.72594,44.85925],[-68.72721,44.85813],[-68.72848,44.857],[-68.72975,44.85588],[-68.73081,44.85496],[-68.73081,44.85496],[-68.73075,44.85474],[-68.73046,44.85361],[-68.73017,44.85248],[-68.72988,44.85134],[-68.72959,44.85021],[-68.72932,44.84908],[-68.72911,44.8483],[-68.72902,44.84795],[-68.72897,44.84774],[-68.72872,44.84682],[-68.72843,44.84568],[-68.72839,44.84555],[-68.72826,44.84504],[-68.72814,44.84455],[-68.72785,44.84342],[-68.72755,44.84228],[-68.72726,44.84115],[-68.72705,44.8403],[-68.72697,44.84001],[-68.72668,44.83888],[-68.72639,44.83775],[-68.72611,44.83661],[-68.72578,44.83538],[-68.72488,44.83549],[-68.72389,44.83561],[-68.72353,44.83566],[-68.72245,44.8358],[-68.72228,44.83511],[-68.72221,44.83484],[-68.72193,44.8337],[-68.72166,44.83256],[-68.72139,44.83142],[-68.72113,44.83028],[-68.72084,44.82915],[-68.72073,44.82869],[-68.72056,44.82802],[-68.72041,44.82737],[-68.72029,44.82688],[-68.72001,44.82575],[-68.71983,44.82495],[-68.71982,44.82492],[-68.71975,44.82462],[-68.71969,44.82436],[-68.71948,44.82348],[-68.7192,44.82236],[-68.71907,44.82182],[-68.71899,44.82147],[-68.71896,44.82133],[-68.71875,44.82043],[-68.71874,44.82038],[-68.71874,44.82037],[-68.71862,44.82038],[-68.718,44.82046],[-68.71763,44.82051],[-68.7173,44.82055],[-68.71649,44.82064],[-68.71605,44.82068],[-68.71515,44.82071],[-68.71432,44.82077],[-68.71347,44.82083],[-68.71296,44.82089],[-68.71216,44.82096],[-68.71179,44.82097],[-68.71068,44.82098],[-68.70942,44.82099],[-68.70827,44.82096],[-68.70777,44.82094],[-68.70743,44.82091],[-68.70717,44.8209],[-68.70679,44.82093],[-68.70657,44.82096],[-68.70622,44.82101],[-68.70593,44.82106],[-68.70571,44.82109],[-68.70509,44.8211],[-68.70473,44.82109],[-68.70451,44.82112],[-68.70431,44.82115],[-68.70411,44.8212],[-68.70367,44.82127],[-68.70353,44.82128],[-68.70173,44.8213],[-68.70108,44.8213],[-68.7005,44.82131],[-68.69965,44.82131],[-68.69933,44.82135],[-68.69906,44.8214],[-68.69875,44.82146],[-68.69874,44.82146],[-68.69874,44.82146],[-68.69871,44.82146],[-68.6982,44.82161],[-68.69785,44.82174],[-68.69765,44.82185],[-68.69762,44.82186],[-68.69744,44.82195],[-68.6973,44.82204],[-68.69682,44.82251],[-68.69671,44.82268],[-68.69656,44.8229],[-68.69643,44.82316],[-68.69624,44.82351],[-68.69617,44.82367],[-68.69611,44.82394],[-68.69607,44.82427],[-68.69607,44.82428],[-68.69611,44.82454],[-68.69612,44.82459],[-68.69629,44.8254],[-68.69638,44.82566],[-68.69671,44.82651],[-68.69694,44.8269],[-68.69738,44.82757],[-68.69779,44.82801],[-68.69811,44.82837],[-68.69833,44.82858],[-68.69876,44.82897],[-68.69907,44.82919],[-68.69932,44.82937],[-68.69945,44.82951],[-68.69976,44.82977],[-68.70004,44.82995],[-68.70038,44.83032],[-68.70055,44.83058],[-68.70066,44.8309],[-68.70068,44.83097],[-68.70076,44.83133],[-68.7008,44.83169],[-68.7008,44.8317],[-68.70079,44.83195],[-68.70078,44.83215],[-68.70078,44.83216],[-68.70078,44.83242],[-68.70083,44.83266],[-68.70092,44.83362],[-68.70092,44.83362],[-68.70086,44.8342],[-68.70083,44.83437],[-68.7008,44.8345],[-68.70076,44.83473],[-68.70071,44.83496],[-68.70065,44.83584],[-68.7006,44.83612],[-68.7004,44.83696],[-68.70033,44.83721],[-68.70024,44.83754],[-68.7002,44.83782],[-68.7002,44.83782],[-68.70024,44.83794],[-68.70026,44.83824],[-68.70026,44.83824],[-68.7002,44.83862],[-68.70012,44.83902],[-68.69959,44.84007],[-68.69902,44.84112],[-68.69837,44.84217],[-68.69803,44.84265],[-68.69766,44.84322],[-68.69747,44.84355],[-68.69735,44.84376],[-68.6969,44.8445],[-68.69636,44.84512],[-68.69619,44.84526],[-68.69619,44.84526]]]]}},"relationships":{"parentArea":{"data":null}}},{"type":"area","id":"01KMGVW6FF31QFTCQWMG5TVESE","attributes":{"deletedAt":null,"createdAt":"2026-03-24T21:26:39.856231Z","lastUpdatedAt":"2026-03-24T21:26:39.856237Z","name":"Union City IN Fire","shape":{"type":"MultiPolygon","coordinates":[[[[-84.90028,40.22549],[-84.90027,40.22294],[-84.90027,40.22243],[-84.89589,40.22246],[-84.8907,40.22249],[-84.88551,40.22253],[-84.88077,40.22255],[-84.87589,40.22253],[-84.8702,40.22253],[-84.86452,40.22252],[-84.86135,40.2225],[-84.85465,40.22247],[-84.84753,40.22242],[-84.84364,40.22248],[-84.84367,40.22522],[-84.83758,40.22282],[-84.83088,40.22011],[-84.82458,40.21738],[-84.82452,40.22086],[-84.8245,40.22168],[-84.8245,40.22196],[-84.82449,40.22275],[-84.82447,40.22421],[-84.8183,40.22407],[-84.8118,40.22393],[-84.80531,40.22378],[-84.80519,40.22995],[-84.80508,40.23612],[-84.80493,40.24087],[-84.80479,40.24562],[-84.80475,40.24821],[-84.8046,40.25321],[-84.80454,40.25673],[-84.80448,40.26026],[-84.80441,40.26382],[-84.80434,40.26741],[-84.80421,40.27182],[-84.80421,40.27755],[-84.80403,40.282],[-84.80415,40.28544],[-84.80385,40.29184],[-84.80392,40.29777],[-84.8037,40.30387],[-84.80365,40.30727],[-84.80369,40.3101],[-84.80368,40.31093],[-84.80733,40.31089],[-84.80753,40.31007],[-84.81178,40.31005],[-84.81987,40.30999],[-84.82796,40.30993],[-84.83605,40.30988],[-84.84415,40.30982],[-84.85224,40.30976],[-84.86033,40.3097],[-84.863,40.30968],[-84.86842,40.30964],[-84.87652,40.30958],[-84.88192,40.30954],[-84.88461,40.30952],[-84.8927,40.30946],[-84.90079,40.3094],[-84.90075,40.30319],[-84.90072,40.29698],[-84.90068,40.29076],[-84.90064,40.28455],[-84.90061,40.27834],[-84.90057,40.27213],[-84.90053,40.26592],[-84.90049,40.2597],[-84.90046,40.25349],[-84.90044,40.25168],[-84.90042,40.24728],[-84.90038,40.24107],[-84.90036,40.23689],[-84.90028,40.23689],[-84.90028,40.23623],[-84.90028,40.23476],[-84.90027,40.23363],[-84.90027,40.23282],[-84.90027,40.23198],[-84.90027,40.23104],[-84.90027,40.22992],[-84.90027,40.2295],[-84.90026,40.22809],[-84.90027,40.22603],[-84.90028,40.22549]]]]}},"relationships":{"parentArea":{"data":{"type":"area","id":"01KMGVW4GRVZZ1KJHZ9D5GFXXB"}}}},{"type":"area","id":"01KMGVW6H3TXAY3WA20KBQD6X0","attributes":{"deletedAt":null,"createdAt":"2026-03-24T21:26:39.908009Z","lastUpdatedAt":"2026-03-24T21:26:39.908015Z","name":"South Hills","shape":{"type":"MultiPolygon","coordinates":[[[[-114.05266,46.83159],[-114.06704,46.81981],[-114.07942,46.8156],[-114.06442,46.79993],[-114.05313,46.79924],[-114.04937,46.79979],[-114.04706,46.80204],[-114.03657,46.80583],[-114.02429,46.80886],[-114.02459,46.82642],[-114.00648,46.8263],[-114.00683,46.81814],[-113.99223,46.81937],[-113.9888,46.84169],[-113.9976,46.84169],[-114.01412,46.83511],[-114.01786,46.83444],[-114.04566,46.83479],[-114.05275,46.83253],[-114.05266,46.83159]]]]}},"relationships":{"parentArea":{"data":{"type":"area","id":"01KMGVW1J7T9PHDM5WZPTGCE4J"}}}},{"type":"area","id":"01KMGVW6KE7WBJKBEDQ73EB0E6","attributes":{"deletedAt":null,"createdAt":"2026-03-24T21:26:39.982768Z","lastUpdatedAt":"2026-03-24T21:26:39.982774Z","name":"Lynn Police","shape":{"type":"MultiPolygon","coordinates":[[[[-84.93997,40.05514],[-84.94018,40.05512],[-84.94018,40.0549],[-84.94018,40.0548],[-84.94034,40.05488],[-84.94082,40.05484],[-84.94107,40.05481],[-84.94152,40.05475],[-84.94179,40.05471],[-84.94265,40.05458],[-84.94325,40.05447],[-84.94373,40.05438],[-84.94413,40.05429],[-84.94464,40.05416],[-84.94533,40.05399],[-84.94588,40.05383],[-84.9465,40.05363],[-84.94752,40.05328],[-84.94781,40.05317],[-84.94789,40.05314],[-84.94831,40.05297],[-84.94938,40.05248],[-84.95042,40.05203],[-84.9506,40.05196],[-84.95033,40.05094],[-84.95011,40.05004],[-84.94991,40.05004],[-84.94946,40.05004],[-84.94946,40.04974],[-84.94946,40.04961],[-84.94946,40.04931],[-84.94947,40.04861],[-84.94947,40.04854],[-84.94951,40.04854],[-84.94953,40.04861],[-84.94973,40.04935],[-84.94991,40.04935],[-84.95009,40.04935],[-84.95102,40.04935],[-84.95101,40.0486],[-84.95101,40.04858],[-84.95101,40.04854],[-84.95109,40.04854],[-84.95138,40.04854],[-84.9519,40.04854],[-84.95235,40.04854],[-84.9528,40.04854],[-84.95329,40.04854],[-84.95363,40.04854],[-84.95429,40.04854],[-84.95429,40.04849],[-84.95429,40.04847],[-84.95428,40.04772],[-84.95364,40.04772],[-84.95329,40.04772],[-84.95279,40.04772],[-84.95237,40.04772],[-84.95139,40.04772],[-84.95138,40.04772],[-84.95111,40.04772],[-84.95084,40.04772],[-84.95084,40.04772],[-84.95054,40.04772],[-84.95047,40.04772],[-84.95042,40.04773],[-84.95024,40.04773],[-84.95024,40.04775],[-84.95003,40.04775],[-84.94959,40.04775],[-84.94958,40.04773],[-84.94953,40.04758],[-84.94949,40.04746],[-84.94948,40.04739],[-84.94944,40.04723],[-84.94902,40.04555],[-84.94899,40.04542],[-84.9488,40.04539],[-84.94868,40.04499],[-84.94866,40.04494],[-84.94847,40.04494],[-84.94795,40.04495],[-84.9469,40.045],[-84.94649,40.04503],[-84.94649,40.04471],[-84.94644,40.04471],[-84.94595,40.04475],[-84.94563,40.04479],[-84.94498,40.04487],[-84.94466,40.04492],[-84.94465,40.04493],[-84.9413,40.04494],[-84.9413,40.04466],[-84.9413,40.04455],[-84.9413,40.04452],[-84.9413,40.04443],[-84.9413,40.04428],[-84.9413,40.04413],[-84.94129,40.04397],[-84.94129,40.04383],[-84.94129,40.0437],[-84.94129,40.04358],[-84.94129,40.04343],[-84.94129,40.04308],[-84.94128,40.04281],[-84.94128,40.04269],[-84.94128,40.04253],[-84.94128,40.04226],[-84.94128,40.04198],[-84.94128,40.04164],[-84.94128,40.04161],[-84.94128,40.04157],[-84.94127,40.04116],[-84.94127,40.04068],[-84.94127,40.04054],[-84.94126,40.03999],[-84.94008,40.04],[-84.93996,40.04],[-84.93984,40.04],[-84.93984,40.03966],[-84.93973,40.03966],[-84.93966,40.03966],[-84.93902,40.03965],[-84.93886,40.04032],[-84.93876,40.04076],[-84.93858,40.04159],[-84.93862,40.04159],[-84.93862,40.04206],[-84.93867,40.04206],[-84.93867,40.04262],[-84.93867,40.04296],[-84.9386,40.04313],[-84.93856,40.04326],[-84.93853,40.04333],[-84.93846,40.04351],[-84.93835,40.04382],[-84.93826,40.0441],[-84.93805,40.04467],[-84.93804,40.04467],[-84.93774,40.04463],[-84.93774,40.04506],[-84.93774,40.04554],[-84.9378,40.04554],[-84.93777,40.04572],[-84.9377,40.0461],[-84.93764,40.04637],[-84.93764,40.04654],[-84.93761,40.04656],[-84.93721,40.04696],[-84.93701,40.04717],[-84.93651,40.04767],[-84.9351,40.04805],[-84.93318,40.04857],[-84.934,40.04857],[-84.93385,40.04861],[-84.93379,40.04862],[-84.93314,40.04881],[-84.93299,40.04885],[-84.93195,40.04915],[-84.93194,40.04951],[-84.93191,40.05026],[-84.93304,40.0503],[-84.93304,40.05108],[-84.93304,40.05218],[-84.93438,40.05218],[-84.93525,40.05218],[-84.93533,40.05218],[-84.93554,40.05218],[-84.93577,40.05218],[-84.936,40.05218],[-84.93616,40.05218],[-84.93643,40.05218],[-84.9367,40.05218],[-84.93675,40.05218],[-84.93702,40.05218],[-84.93729,40.05218],[-84.93745,40.05218],[-84.93745,40.05225],[-84.93791,40.05225],[-84.93933,40.05225],[-84.93935,40.05225],[-84.93937,40.05246],[-84.93988,40.05246],[-84.94001,40.05246],[-84.94001,40.05259],[-84.94001,40.05262],[-84.94001,40.05277],[-84.94001,40.0528],[-84.94001,40.05292],[-84.94001,40.05307],[-84.94001,40.05314],[-84.94,40.05344],[-84.94,40.05349],[-84.94,40.05378],[-84.93999,40.05399],[-84.93999,40.05401],[-84.93998,40.05433],[-84.93997,40.05492],[-84.93997,40.05514]]]]}},"relationships":{"parentArea":{"data":{"type":"area","id":"01KMGVW4GRVZZ1KJHZ9D5GFXXB"}}}},{"type":"user","id":"01KMGVWFXX8A2K742X2RN5V02C","attributes":{"lastLogin":null,"deletedAt":null,"createdAt":"2026-03-24T21:26:49.533225Z","lastUpdatedAt":"2026-03-24T21:26:49.694893Z","email":"ashley.robinson@example.com","firstName":"Ashley","isActive":true,"isStaff":false,"lastName":"Robinson"}},{"type":"userOrganization","id":"01KMGVW94RF3CYDTNMZSMBF596","attributes":{"deletedAt":null,"createdAt":"2026-03-24T21:26:42.584704Z","lastUpdatedAt":"2026-03-24T21:26:49.696348Z","inviteAcceptedAt":"2026-03-24T21:26:49.530916Z","inviteIssuanceHistory":[{"issued_at":"2026-03-24T21:26:49.527326Z","issued_by":null,"token_max_age":14}],"inviteIssuedAt":"2026-03-24T21:26:49.527326Z","inviteStatus":"accepted","inviteTokenMaxAge":14,"inviteUserEmail":"ashley.robinson@example.com","inviteUserFirstName":"Ashley","inviteUserLastName":"Robinson","jobTitle":"EMT","role":"standard"},"relationships":{"inviteIssuedBy":{"data":null},"organization":{"data":{"type":"organization","id":"01KMGVVZ76D5TAQRZ4QDCFEWH5"}},"user":{"data":{"type":"user","id":"01KMGVWFXX8A2K742X2RN5V02C"}}}}],"meta":{"pagination":{"page":1,"pages":2,"count":25}}}