{"links":{"first":"https://example1--backend.local-backofyourhand--backend.com:7200/api/userorganizations?include=user&page%5Bnumber%5D=1&page%5Bsize%5D=20","last":"https://example1--backend.local-backofyourhand--backend.com:7200/api/userorganizations?include=user&page%5Bnumber%5D=2&page%5Bsize%5D=20","next":"https://example1--backend.local-backofyourhand--backend.com:7200/api/userorganizations?include=user&page%5Bnumber%5D=2&page%5Bsize%5D=20","prev":null},"data":[{"type":"userOrganization","id":"01KMH00ZGWH0PGTEARXG8XY9E3","attributes":{"deletedAt":null,"createdAt":"2026-03-24T22:39:10.877256Z","lastUpdatedAt":"2026-03-24T22:39:10.900133Z","inviteAcceptedAt":null,"inviteIssuanceHistory":[{"issued_at":"2026-03-24T22:39:10.900050Z","issued_by":"01KMGVW929GTM859J3XC8HK041","token_max_age":14}],"inviteIssuedAt":"2026-03-24T22:39:10.900050Z","inviteStatus":"invited","inviteTokenMaxAge":14,"inviteUserEmail":"invite-admin@example.com","inviteUserFirstName":"Admin","inviteUserLastName":"Test","jobTitle":"","role":"admin"},"relationships":{"inviteIssuedBy":{"data":{"type":"userOrganization","id":"01KMGVW929GTM859J3XC8HK041"}},"organization":{"data":{"type":"organization","id":"01KMGVVZ76D5TAQRZ4QDCFEWH5"}},"user":{"data":null}}},{"type":"userOrganization","id":"01KMGVW94RF3CYDTNMZSMBF596","attributes":{"deletedAt":null,"createdAt":"2026-03-24T21:26:42.584704Z","lastUpdatedAt":"2026-03-24T21:26:49.696348Z","inviteAcceptedAt":"2026-03-24T21:26:49.530916Z","inviteIssuanceHistory":[{"issued_at":"2026-03-24T21:26:49.527326Z","issued_by":null,"token_max_age":14}],"inviteIssuedAt":"2026-03-24T21:26:49.527326Z","inviteStatus":"accepted","inviteTokenMaxAge":14,"inviteUserEmail":"ashley.robinson@example.com","inviteUserFirstName":"Ashley","inviteUserLastName":"Robinson","jobTitle":"EMT","role":"standard"},"relationships":{"inviteIssuedBy":{"data":null},"organization":{"data":{"type":"organization","id":"01KMGVVZ76D5TAQRZ4QDCFEWH5"}},"user":{"data":{"type":"user","id":"01KMGVWFXX8A2K742X2RN5V02C"}}}},{"type":"userOrganization","id":"01KMGVW949VGRKH6A4YZS0F80W","attributes":{"deletedAt":null,"createdAt":"2026-03-24T21:26:42.569785Z","lastUpdatedAt":"2026-03-24T21:26:48.418857Z","inviteAcceptedAt":"2026-03-24T21:26:48.254210Z","inviteIssuanceHistory":[{"issued_at":"2026-03-24T21:26:48.250742Z","issued_by":null,"token_max_age":14}],"inviteIssuedAt":"2026-03-24T21:26:48.250742Z","inviteStatus":"accepted","inviteTokenMaxAge":14,"inviteUserEmail":"betty.martin@example.com","inviteUserFirstName":"Betty","inviteUserLastName":"Martin","jobTitle":"Paramedic","role":"standard"},"relationships":{"inviteIssuedBy":{"data":null},"organization":{"data":{"type":"organization","id":"01KMGVVZ76D5TAQRZ4QDCFEWH5"}},"user":{"data":{"type":"user","id":"01KMGVWENZNKVBP1YVMRFFBEM6"}}}},{"type":"userOrganization","id":"01KMGVW9637J59PPBHRFC9M2ZN","attributes":{"deletedAt":null,"createdAt":"2026-03-24T21:26:42.627354Z","lastUpdatedAt":"2026-03-24T21:26:53.247773Z","inviteAcceptedAt":"2026-03-24T21:26:53.078906Z","inviteIssuanceHistory":[{"issued_at":"2026-03-24T21:26:53.074115Z","issued_by":null,"token_max_age":14}],"inviteIssuedAt":"2026-03-24T21:26:53.074115Z","inviteStatus":"accepted","inviteTokenMaxAge":14,"inviteUserEmail":"brian.wright@example.com","inviteUserFirstName":"Brian","inviteUserLastName":"Wright","jobTitle":"Firefighter","role":"standard"},"relationships":{"inviteIssuedBy":{"data":null},"organization":{"data":{"type":"organization","id":"01KMGVVZ76D5TAQRZ4QDCFEWH5"}},"user":{"data":{"type":"user","id":"01KMGVWKCRVKSJV4XNBM1VJ1YH"}}}},{"type":"userOrganization","id":"01KMGVW94WCTPKB7X038PXFFNW","attributes":{"deletedAt":null,"createdAt":"2026-03-24T21:26:42.588796Z","lastUpdatedAt":"2026-03-24T21:26:50.005569Z","inviteAcceptedAt":"2026-03-24T21:26:49.841290Z","inviteIssuanceHistory":[{"issued_at":"2026-03-24T21:26:49.838263Z","issued_by":null,"token_max_age":14}],"inviteIssuedAt":"2026-03-24T21:26:49.838263Z","inviteStatus":"accepted","inviteTokenMaxAge":14,"inviteUserEmail":"charles.clark@example.com","inviteUserFirstName":"Charles","inviteUserLastName":"Clark","jobTitle":"Fire Engineer","role":"standard"},"relationships":{"inviteIssuedBy":{"data":null},"organization":{"data":{"type":"organization","id":"01KMGVVZ76D5TAQRZ4QDCFEWH5"}},"user":{"data":{"type":"user","id":"01KMGVWG7KYZPDA9PY5BGTZMPJ"}}}},{"type":"userOrganization","id":"01KMGVW93PDZN7WGRYGWWH4WFB","attributes":{"deletedAt":null,"createdAt":"2026-03-24T21:26:42.550657Z","lastUpdatedAt":"2026-03-24T21:26:46.661724Z","inviteAcceptedAt":"2026-03-24T21:26:46.479071Z","inviteIssuanceHistory":[{"issued_at":"2026-03-24T21:26:46.475976Z","issued_by":null,"token_max_age":14}],"inviteIssuedAt":"2026-03-24T21:26:46.475976Z","inviteStatus":"accepted","inviteTokenMaxAge":14,"inviteUserEmail":"christopher.thomas@example.com","inviteUserFirstName":"Christopher","inviteUserLastName":"Thomas","jobTitle":"Firefighter","role":"standard"},"relationships":{"inviteIssuedBy":{"data":null},"organization":{"data":{"type":"organization","id":"01KMGVVZ76D5TAQRZ4QDCFEWH5"}},"user":{"data":{"type":"user","id":"01KMGVWCYG505E7PJ0B7AHEX23"}}}},{"type":"userOrganization","id":"01KMGVW93XHQQY80VRKVB4E4JH","attributes":{"deletedAt":null,"createdAt":"2026-03-24T21:26:42.558158Z","lastUpdatedAt":"2026-03-24T21:26:47.358487Z","inviteAcceptedAt":"2026-03-24T21:26:47.181790Z","inviteIssuanceHistory":[{"issued_at":"2026-03-24T21:26:47.178713Z","issued_by":null,"token_max_age":14}],"inviteIssuedAt":"2026-03-24T21:26:47.178713Z","inviteStatus":"accepted","inviteTokenMaxAge":14,"inviteUserEmail":"daniel.jackson@example.com","inviteUserFirstName":"Daniel","inviteUserLastName":"Jackson","jobTitle":"Fire Engineer","role":"standard"},"relationships":{"inviteIssuedBy":{"data":null},"organization":{"data":{"type":"organization","id":"01KMGVVZ76D5TAQRZ4QDCFEWH5"}},"user":{"data":{"type":"user","id":"01KMGVWDME9VKHFP13JWYPCCK9"}}}},{"type":"userOrganization","id":"01KMGVW930KYBKEEAX9BT4X9D1","attributes":{"deletedAt":null,"createdAt":"2026-03-24T21:26:42.528283Z","lastUpdatedAt":"2026-03-24T21:26:44.540952Z","inviteAcceptedAt":"2026-03-24T21:26:44.379287Z","inviteIssuanceHistory":[{"issued_at":"2026-03-24T21:26:44.373344Z","issued_by":null,"token_max_age":14}],"inviteIssuedAt":"2026-03-24T21:26:44.373344Z","inviteStatus":"accepted","inviteTokenMaxAge":14,"inviteUserEmail":"david.kim@example.com","inviteUserFirstName":"David","inviteUserLastName":"Kim","jobTitle":"Deputy Chief","role":"admin"},"relationships":{"inviteIssuedBy":{"data":null},"organization":{"data":{"type":"organization","id":"01KMGVVZ76D5TAQRZ4QDCFEWH5"}},"user":{"data":{"type":"user","id":"01KMGVWAWWM6VPGMPB5T9E4ZDN"}}}},{"type":"userOrganization","id":"01KMGVW95006V0Y2XT1MSDYJPN","attributes":{"deletedAt":null,"createdAt":"2026-03-24T21:26:42.592563Z","lastUpdatedAt":"2026-03-24T21:26:50.310775Z","inviteAcceptedAt":"2026-03-24T21:26:50.143067Z","inviteIssuanceHistory":[{"issued_at":"2026-03-24T21:26:50.140014Z","issued_by":null,"token_max_age":14}],"inviteIssuedAt":"2026-03-24T21:26:50.140014Z","inviteStatus":"accepted","inviteTokenMaxAge":14,"inviteUserEmail":"donna.rodriguez@example.com","inviteUserFirstName":"Donna","inviteUserLastName":"Rodriguez","jobTitle":"Paramedic","role":"standard"},"relationships":{"inviteIssuedBy":{"data":null},"organization":{"data":{"type":"organization","id":"01KMGVVZ76D5TAQRZ4QDCFEWH5"}},"user":{"data":{"type":"user","id":"01KMGVWGH0WRDM05S086WDJ6SG"}}}},{"type":"userOrganization","id":"01KMGVW9664AZWHPR6E7Q21XPT","attributes":{"deletedAt":null,"createdAt":"2026-03-24T21:26:42.630839Z","lastUpdatedAt":"2026-03-24T21:26:53.613387Z","inviteAcceptedAt":"2026-03-24T21:26:53.450311Z","inviteIssuanceHistory":[{"issued_at":"2026-03-24T21:26:53.447029Z","issued_by":null,"token_max_age":14}],"inviteIssuedAt":"2026-03-24T21:26:53.447029Z","inviteStatus":"accepted","inviteTokenMaxAge":14,"inviteUserEmail":"dorothy.lopez@example.com","inviteUserFirstName":"Dorothy","inviteUserLastName":"Lopez","jobTitle":"Paramedic","role":"standard"},"relationships":{"inviteIssuedBy":{"data":null},"organization":{"data":{"type":"organization","id":"01KMGVVZ76D5TAQRZ4QDCFEWH5"}},"user":{"data":{"type":"user","id":"01KMGVWKRCCXHNG3XXPGKPAG03"}}}},{"type":"userOrganization","id":"01KMGVW95TSAV89E4PF0197TG2","attributes":{"deletedAt":null,"createdAt":"2026-03-24T21:26:42.618926Z","lastUpdatedAt":"2026-03-24T21:26:52.568331Z","inviteAcceptedAt":"2026-03-24T21:26:52.401391Z","inviteIssuanceHistory":[{"issued_at":"2026-03-24T21:26:52.398650Z","issued_by":null,"token_max_age":14}],"inviteIssuedAt":"2026-03-24T21:26:52.398650Z","inviteStatus":"accepted","inviteTokenMaxAge":14,"inviteUserEmail":"edward.hernandez@example.com","inviteUserFirstName":"Edward","inviteUserLastName":"Hernandez","jobTitle":"Fire Captain","role":"standard"},"relationships":{"inviteIssuedBy":{"data":null},"organization":{"data":{"type":"organization","id":"01KMGVVZ76D5TAQRZ4QDCFEWH5"}},"user":{"data":{"type":"user","id":"01KMGVWJQK1PDE9XJ75TKV41DH"}}}},{"type":"userOrganization","id":"01KMGVW96EWV1A7MS9YVZ4220F","attributes":{"deletedAt":null,"createdAt":"2026-03-24T21:26:42.638357Z","lastUpdatedAt":"2026-03-24T21:26:54.222539Z","inviteAcceptedAt":"2026-03-24T21:26:54.056307Z","inviteIssuanceHistory":[{"issued_at":"2026-03-24T21:26:54.053732Z","issued_by":null,"token_max_age":14}],"inviteIssuedAt":"2026-03-24T21:26:54.053732Z","inviteStatus":"accepted","inviteTokenMaxAge":14,"inviteUserEmail":"helen.scott@example.com","inviteUserFirstName":"Helen","inviteUserLastName":"Scott","jobTitle":"Lieutenant","role":"standard"},"relationships":{"inviteIssuedBy":{"data":null},"organization":{"data":{"type":"organization","id":"01KMGVVZ76D5TAQRZ4QDCFEWH5"}},"user":{"data":{"type":"user","id":"01KMGVWMB9A1HTMF080BZTHTTA"}}}},{"type":"userOrganization","id":"01KMGVW92RMYSJYJGZ9MVW1X00","attributes":{"deletedAt":null,"createdAt":"2026-03-24T21:26:42.520910Z","lastUpdatedAt":"2026-03-24T21:26:43.868635Z","inviteAcceptedAt":"2026-03-24T21:26:43.701662Z","inviteIssuanceHistory":[{"issued_at":"2026-03-24T21:26:43.698934Z","issued_by":null,"token_max_age":14}],"inviteIssuedAt":"2026-03-24T21:26:43.698934Z","inviteStatus":"accepted","inviteTokenMaxAge":14,"inviteUserEmail":"james.wilson@example.com","inviteUserFirstName":"James","inviteUserLastName":"Wilson","jobTitle":"Fire Chief","role":"admin"},"relationships":{"inviteIssuedBy":{"data":null},"organization":{"data":{"type":"organization","id":"01KMGVVZ76D5TAQRZ4QDCFEWH5"}},"user":{"data":{"type":"user","id":"01KMGVWA7PCZED6FAYM41341CZ"}}}},{"type":"userOrganization","id":"01KMGVW934S881TFHD66XCMTX1","attributes":{"deletedAt":null,"createdAt":"2026-03-24T21:26:42.532209Z","lastUpdatedAt":"2026-03-24T21:26:44.862717Z","inviteAcceptedAt":"2026-03-24T21:26:44.674268Z","inviteIssuanceHistory":[{"issued_at":"2026-03-24T21:26:44.671247Z","issued_by":null,"token_max_age":14}],"inviteIssuedAt":"2026-03-24T21:26:44.671247Z","inviteStatus":"accepted","inviteTokenMaxAge":14,"inviteUserEmail":"jennifer.brown@example.com","inviteUserFirstName":"Jennifer","inviteUserLastName":"Brown","jobTitle":"Paramedic","role":"standard"},"relationships":{"inviteIssuedBy":{"data":null},"organization":{"data":{"type":"organization","id":"01KMGVVZ76D5TAQRZ4QDCFEWH5"}},"user":{"data":{"type":"user","id":"01KMGVWB63SA7Q3GFFVKSQHGP6"}}}},{"type":"userOrganization","id":"01KMGVW95ZDQP1FMWBC2N5QHVW","attributes":{"deletedAt":null,"createdAt":"2026-03-24T21:26:42.623199Z","lastUpdatedAt":"2026-03-24T21:26:52.885512Z","inviteAcceptedAt":"2026-03-24T21:26:52.718919Z","inviteIssuanceHistory":[{"issued_at":"2026-03-24T21:26:52.715060Z","issued_by":null,"token_max_age":14}],"inviteIssuedAt":"2026-03-24T21:26:52.715060Z","inviteStatus":"accepted","inviteTokenMaxAge":14,"inviteUserEmail":"jessica.king@example.com","inviteUserFirstName":"Jessica","inviteUserLastName":"King","jobTitle":"","role":"standard"},"relationships":{"inviteIssuedBy":{"data":null},"organization":{"data":{"type":"organization","id":"01KMGVVZ76D5TAQRZ4QDCFEWH5"}},"user":{"data":{"type":"user","id":"01KMGVWK1GKBFA6JYMS2R533MK"}}}},{"type":"userOrganization","id":"01KMGVW94DYJ6Y82VQEHJAG5VK","attributes":{"deletedAt":null,"createdAt":"2026-03-24T21:26:42.573300Z","lastUpdatedAt":"2026-03-24T21:26:48.729878Z","inviteAcceptedAt":"2026-03-24T21:26:48.564595Z","inviteIssuanceHistory":[{"issued_at":"2026-03-24T21:26:48.561758Z","issued_by":null,"token_max_age":14}],"inviteIssuedAt":"2026-03-24T21:26:48.561758Z","inviteStatus":"accepted","inviteTokenMaxAge":14,"inviteUserEmail":"joseph.thompson@example.com","inviteUserFirstName":"Joseph","inviteUserLastName":"Thompson","jobTitle":"Fire Captain","role":"standard"},"relationships":{"inviteIssuedBy":{"data":null},"organization":{"data":{"type":"organization","id":"01KMGVVZ76D5TAQRZ4QDCFEWH5"}},"user":{"data":{"type":"user","id":"01KMGVWEZPT46RH6N9KMF08VK4"}}}},{"type":"userOrganization","id":"01KMGVW9414Z5KWB4GWVWW3ZWN","attributes":{"deletedAt":null,"createdAt":"2026-03-24T21:26:42.561982Z","lastUpdatedAt":"2026-03-24T21:26:47.699295Z","inviteAcceptedAt":"2026-03-24T21:26:47.532688Z","inviteIssuanceHistory":[{"issued_at":"2026-03-24T21:26:47.528925Z","issued_by":null,"token_max_age":14}],"inviteIssuedAt":"2026-03-24T21:26:47.528925Z","inviteStatus":"accepted","inviteTokenMaxAge":14,"inviteUserEmail":"karen.white@example.com","inviteUserFirstName":"Karen","inviteUserLastName":"White","jobTitle":"EMT","role":"standard"},"relationships":{"inviteIssuedBy":{"data":null},"organization":{"data":{"type":"organization","id":"01KMGVVZ76D5TAQRZ4QDCFEWH5"}},"user":{"data":{"type":"user","id":"01KMGVWDZEH7EKFGKPVQSE8N4J"}}}},{"type":"userOrganization","id":"01KMGVW95FETKBNEB3GGQERRVK","attributes":{"deletedAt":null,"createdAt":"2026-03-24T21:26:42.607259Z","lastUpdatedAt":"2026-03-24T21:26:51.665111Z","inviteAcceptedAt":"2026-03-24T21:26:51.488080Z","inviteIssuanceHistory":[{"issued_at":"2026-03-24T21:26:51.484821Z","issued_by":null,"token_max_age":14}],"inviteIssuedAt":"2026-03-24T21:26:51.484821Z","inviteStatus":"accepted","inviteTokenMaxAge":14,"inviteUserEmail":"laura.hall@example.com","inviteUserFirstName":"Laura","inviteUserLastName":"Hall","jobTitle":"Paramedic","role":"standard"},"relationships":{"inviteIssuedBy":{"data":null},"organization":{"data":{"type":"organization","id":"01KMGVVZ76D5TAQRZ4QDCFEWH5"}},"user":{"data":{"type":"user","id":"01KMGVWHV1AK6A8RRY903SYXJK"}}}},{"type":"userOrganization","id":"01KMGVW93BF2AZ59D7RNGR4QRA","attributes":{"deletedAt":null,"createdAt":"2026-03-24T21:26:42.539954Z","lastUpdatedAt":"2026-03-24T21:26:45.549829Z","inviteAcceptedAt":"2026-03-24T21:26:45.383921Z","inviteIssuanceHistory":[{"issued_at":"2026-03-24T21:26:45.380325Z","issued_by":null,"token_max_age":14}],"inviteIssuedAt":"2026-03-24T21:26:45.380325Z","inviteStatus":"accepted","inviteTokenMaxAge":14,"inviteUserEmail":"lisa.martinez@example.com","inviteUserFirstName":"Lisa","inviteUserLastName":"Martinez","jobTitle":"EMT","role":"standard"},"relationships":{"inviteIssuedBy":{"data":null},"organization":{"data":{"type":"organization","id":"01KMGVVZ76D5TAQRZ4QDCFEWH5"}},"user":{"data":{"type":"user","id":"01KMGVWBW9TQ48BQV0SANDWPEH"}}}},{"type":"userOrganization","id":"01KMGVW92WP9E84R0Y90DNK4H7","attributes":{"deletedAt":null,"createdAt":"2026-03-24T21:26:42.524543Z","lastUpdatedAt":"2026-03-24T21:26:44.225194Z","inviteAcceptedAt":"2026-03-24T21:26:44.059472Z","inviteIssuanceHistory":[{"issued_at":"2026-03-24T21:26:44.056714Z","issued_by":null,"token_max_age":14}],"inviteIssuedAt":"2026-03-24T21:26:44.056714Z","inviteStatus":"accepted","inviteTokenMaxAge":14,"inviteUserEmail":"maria.garcia@example.com","inviteUserFirstName":"Maria","inviteUserLastName":"Garcia","jobTitle":"Battalion Chief","role":"admin"},"relationships":{"inviteIssuedBy":{"data":null},"organization":{"data":{"type":"organization","id":"01KMGVVZ76D5TAQRZ4QDCFEWH5"}},"user":{"data":{"type":"user","id":"01KMGVWAJW973D70SFWHY8VPH7"}}}}],"included":[{"type":"user","id":"01KMGVWA7PCZED6FAYM41341CZ","attributes":{"lastLogin":null,"deletedAt":null,"createdAt":"2026-03-24T21:26:43.703039Z","lastUpdatedAt":"2026-03-24T21:26:43.867214Z","email":"james.wilson@example.com","firstName":"James","isActive":true,"isStaff":false,"lastName":"Wilson"}},{"type":"user","id":"01KMGVWAJW973D70SFWHY8VPH7","attributes":{"lastLogin":null,"deletedAt":null,"createdAt":"2026-03-24T21:26:44.060692Z","lastUpdatedAt":"2026-03-24T21:26:44.224034Z","email":"maria.garcia@example.com","firstName":"Maria","isActive":true,"isStaff":false,"lastName":"Garcia"}},{"type":"user","id":"01KMGVWAWWM6VPGMPB5T9E4ZDN","attributes":{"lastLogin":null,"deletedAt":null,"createdAt":"2026-03-24T21:26:44.380493Z","lastUpdatedAt":"2026-03-24T21:26:44.539621Z","email":"david.kim@example.com","firstName":"David","isActive":true,"isStaff":false,"lastName":"Kim"}},{"type":"user","id":"01KMGVWB63SA7Q3GFFVKSQHGP6","attributes":{"lastLogin":null,"deletedAt":null,"createdAt":"2026-03-24T21:26:44.676184Z","lastUpdatedAt":"2026-03-24T21:26:44.857652Z","email":"jennifer.brown@example.com","firstName":"Jennifer","isActive":true,"isStaff":false,"lastName":"Brown"}},{"type":"user","id":"01KMGVWBW9TQ48BQV0SANDWPEH","attributes":{"lastLogin":null,"deletedAt":null,"createdAt":"2026-03-24T21:26:45.385291Z","lastUpdatedAt":"2026-03-24T21:26:45.548345Z","email":"lisa.martinez@example.com","firstName":"Lisa","isActive":true,"isStaff":false,"lastName":"Martinez"}},{"type":"user","id":"01KMGVWCYG505E7PJ0B7AHEX23","attributes":{"lastLogin":null,"deletedAt":null,"createdAt":"2026-03-24T21:26:46.480581Z","lastUpdatedAt":"2026-03-24T21:26:46.660551Z","email":"christopher.thomas@example.com","firstName":"Christopher","isActive":true,"isStaff":false,"lastName":"Thomas"}},{"type":"user","id":"01KMGVWDME9VKHFP13JWYPCCK9","attributes":{"lastLogin":null,"deletedAt":null,"createdAt":"2026-03-24T21:26:47.183148Z","lastUpdatedAt":"2026-03-24T21:26:47.357311Z","email":"daniel.jackson@example.com","firstName":"Daniel","isActive":true,"isStaff":false,"lastName":"Jackson"}},{"type":"user","id":"01KMGVWDZEH7EKFGKPVQSE8N4J","attributes":{"lastLogin":null,"deletedAt":null,"createdAt":"2026-03-24T21:26:47.534460Z","lastUpdatedAt":"2026-03-24T21:26:47.698127Z","email":"karen.white@example.com","firstName":"Karen","isActive":true,"isStaff":false,"lastName":"White"}},{"type":"user","id":"01KMGVWENZNKVBP1YVMRFFBEM6","attributes":{"lastLogin":null,"deletedAt":null,"createdAt":"2026-03-24T21:26:48.255500Z","lastUpdatedAt":"2026-03-24T21:26:48.417704Z","email":"betty.martin@example.com","firstName":"Betty","isActive":true,"isStaff":false,"lastName":"Martin"}},{"type":"user","id":"01KMGVWEZPT46RH6N9KMF08VK4","attributes":{"lastLogin":null,"deletedAt":null,"createdAt":"2026-03-24T21:26:48.566764Z","lastUpdatedAt":"2026-03-24T21:26:48.728618Z","email":"joseph.thompson@example.com","firstName":"Joseph","isActive":true,"isStaff":false,"lastName":"Thompson"}},{"type":"user","id":"01KMGVWFXX8A2K742X2RN5V02C","attributes":{"lastLogin":null,"deletedAt":null,"createdAt":"2026-03-24T21:26:49.533225Z","lastUpdatedAt":"2026-03-24T21:26:49.694893Z","email":"ashley.robinson@example.com","firstName":"Ashley","isActive":true,"isStaff":false,"lastName":"Robinson"}},{"type":"user","id":"01KMGVWG7KYZPDA9PY5BGTZMPJ","attributes":{"lastLogin":null,"deletedAt":null,"createdAt":"2026-03-24T21:26:49.843323Z","lastUpdatedAt":"2026-03-24T21:26:50.003915Z","email":"charles.clark@example.com","firstName":"Charles","isActive":true,"isStaff":false,"lastName":"Clark"}},{"type":"user","id":"01KMGVWGH0WRDM05S086WDJ6SG","attributes":{"lastLogin":null,"deletedAt":null,"createdAt":"2026-03-24T21:26:50.145988Z","lastUpdatedAt":"2026-03-24T21:26:50.309216Z","email":"donna.rodriguez@example.com","firstName":"Donna","isActive":true,"isStaff":false,"lastName":"Rodriguez"}},{"type":"user","id":"01KMGVWHV1AK6A8RRY903SYXJK","attributes":{"lastLogin":null,"deletedAt":null,"createdAt":"2026-03-24T21:26:51.490157Z","lastUpdatedAt":"2026-03-24T21:26:51.663566Z","email":"laura.hall@example.com","firstName":"Laura","isActive":true,"isStaff":false,"lastName":"Hall"}},{"type":"user","id":"01KMGVWJQK1PDE9XJ75TKV41DH","attributes":{"lastLogin":null,"deletedAt":null,"createdAt":"2026-03-24T21:26:52.403319Z","lastUpdatedAt":"2026-03-24T21:26:52.566924Z","email":"edward.hernandez@example.com","firstName":"Edward","isActive":true,"isStaff":false,"lastName":"Hernandez"}},{"type":"user","id":"01KMGVWK1GKBFA6JYMS2R533MK","attributes":{"lastLogin":null,"deletedAt":null,"createdAt":"2026-03-24T21:26:52.720889Z","lastUpdatedAt":"2026-03-24T21:26:52.883862Z","email":"jessica.king@example.com","firstName":"Jessica","isActive":true,"isStaff":false,"lastName":"King"}},{"type":"user","id":"01KMGVWKCRVKSJV4XNBM1VJ1YH","attributes":{"lastLogin":null,"deletedAt":null,"createdAt":"2026-03-24T21:26:53.080976Z","lastUpdatedAt":"2026-03-24T21:26:53.245428Z","email":"brian.wright@example.com","firstName":"Brian","isActive":true,"isStaff":false,"lastName":"Wright"}},{"type":"user","id":"01KMGVWKRCCXHNG3XXPGKPAG03","attributes":{"lastLogin":null,"deletedAt":null,"createdAt":"2026-03-24T21:26:53.452456Z","lastUpdatedAt":"2026-03-24T21:26:53.611908Z","email":"dorothy.lopez@example.com","firstName":"Dorothy","isActive":true,"isStaff":false,"lastName":"Lopez"}},{"type":"user","id":"01KMGVWMB9A1HTMF080BZTHTTA","attributes":{"lastLogin":null,"deletedAt":null,"createdAt":"2026-03-24T21:26:54.058204Z","lastUpdatedAt":"2026-03-24T21:26:54.220719Z","email":"helen.scott@example.com","firstName":"Helen","isActive":true,"isStaff":false,"lastName":"Scott"}}],"meta":{"pagination":{"page":1,"pages":2,"count":39}}}