{"links":{"first":"https://example1--backend.local-backofyourhand--backend.com:7200/api/userorganizations?include=user&page%5Bnumber%5D=1&page%5Bsize%5D=20","last":"https://example1--backend.local-backofyourhand--backend.com:7200/api/userorganizations?include=user&page%5Bnumber%5D=3&page%5Bsize%5D=20","next":"https://example1--backend.local-backofyourhand--backend.com:7200/api/userorganizations?include=user&page%5Bnumber%5D=2&page%5Bsize%5D=20","prev":null},"data":[{"type":"userOrganization","id":"01KMXVXEW3A91GBJP02JPVPHTM","attributes":{"deletedAt":null,"createdAt":"2026-03-29T22:37:28.835959Z","lastUpdatedAt":"2026-03-29T22:37:28.858906Z","inviteAcceptedAt":null,"inviteIssuanceHistory":[{"issued_at":"2026-03-29T22:37:28.858825Z","issued_by":"01KMXSPN641RE5PVTB1EF1HY1T","token_max_age":14}],"inviteIssuedAt":"2026-03-29T22:37:28.858825Z","inviteStatus":"invited","inviteTokenMaxAge":14,"inviteUserEmail":"invite-admin@example.com","inviteUserFirstName":"Admin","inviteUserLastName":"Test","jobTitle":"","role":"admin"},"relationships":{"inviteIssuedBy":{"data":{"type":"userOrganization","id":"01KMXSPN641RE5PVTB1EF1HY1T"}},"organization":{"data":{"type":"organization","id":"01KMXSPB0AXKYMQK636TXNNWR4"}},"user":{"data":null}}},{"type":"userOrganization","id":"01KMXSPN84V7R38G5362VFMRRN","attributes":{"deletedAt":null,"createdAt":"2026-03-29T21:58:48.836854Z","lastUpdatedAt":"2026-03-29T21:58:56.604814Z","inviteAcceptedAt":"2026-03-29T21:58:56.370683Z","inviteIssuanceHistory":[{"issued_at":"2026-03-29T21:58:56.367099Z","issued_by":null,"token_max_age":14}],"inviteIssuedAt":"2026-03-29T21:58:56.367099Z","inviteStatus":"accepted","inviteTokenMaxAge":14,"inviteUserEmail":"ashley.robinson@example.com","inviteUserFirstName":"Ashley","inviteUserLastName":"Robinson","jobTitle":"EMT","role":"standard"},"relationships":{"inviteIssuedBy":{"data":null},"organization":{"data":{"type":"organization","id":"01KMXSPB0AXKYMQK636TXNNWR4"}},"user":{"data":{"type":"user","id":"01KMXSPWKMGJNF3EA0EPFE4VXB"}}}},{"type":"userOrganization","id":"01KMXSPN7S29042J38637YYHPJ","attributes":{"deletedAt":null,"createdAt":"2026-03-29T21:58:48.825431Z","lastUpdatedAt":"2026-03-29T21:58:55.105554Z","inviteAcceptedAt":"2026-03-29T21:58:54.858818Z","inviteIssuanceHistory":[{"issued_at":"2026-03-29T21:58:54.856471Z","issued_by":null,"token_max_age":14}],"inviteIssuedAt":"2026-03-29T21:58:54.856471Z","inviteStatus":"accepted","inviteTokenMaxAge":14,"inviteUserEmail":"betty.martin@example.com","inviteUserFirstName":"Betty","inviteUserLastName":"Martin","jobTitle":"Paramedic","role":"standard"},"relationships":{"inviteIssuedBy":{"data":null},"organization":{"data":{"type":"organization","id":"01KMXSPB0AXKYMQK636TXNNWR4"}},"user":{"data":{"type":"user","id":"01KMXSPV4C4EFZTJ0WGBAXFE1G"}}}},{"type":"userOrganization","id":"01KMXSPN9BJV3W5T1G4CYBT9RS","attributes":{"deletedAt":null,"createdAt":"2026-03-29T21:58:48.876337Z","lastUpdatedAt":"2026-03-29T21:59:00.562066Z","inviteAcceptedAt":"2026-03-29T21:59:00.318899Z","inviteIssuanceHistory":[{"issued_at":"2026-03-29T21:59:00.316587Z","issued_by":null,"token_max_age":14}],"inviteIssuedAt":"2026-03-29T21:59:00.316587Z","inviteStatus":"accepted","inviteTokenMaxAge":14,"inviteUserEmail":"brian.wright@example.com","inviteUserFirstName":"Brian","inviteUserLastName":"Wright","jobTitle":"Firefighter","role":"standard"},"relationships":{"inviteIssuedBy":{"data":null},"organization":{"data":{"type":"organization","id":"01KMXSPB0AXKYMQK636TXNNWR4"}},"user":{"data":{"type":"user","id":"01KMXSQ0F0NTEMGJEMKTKC9TVG"}}}},{"type":"userOrganization","id":"01KMXSPN87PM9JAK8GMH98TJNV","attributes":{"deletedAt":null,"createdAt":"2026-03-29T21:58:48.839581Z","lastUpdatedAt":"2026-03-29T21:58:56.969237Z","inviteAcceptedAt":"2026-03-29T21:58:56.748867Z","inviteIssuanceHistory":[{"issued_at":"2026-03-29T21:58:56.746408Z","issued_by":null,"token_max_age":14}],"inviteIssuedAt":"2026-03-29T21:58:56.746408Z","inviteStatus":"accepted","inviteTokenMaxAge":14,"inviteUserEmail":"charles.clark@example.com","inviteUserFirstName":"Charles","inviteUserLastName":"Clark","jobTitle":"Fire Engineer","role":"standard"},"relationships":{"inviteIssuedBy":{"data":null},"organization":{"data":{"type":"organization","id":"01KMXSPB0AXKYMQK636TXNNWR4"}},"user":{"data":{"type":"user","id":"01KMXSPWZDWCM4ZJAS6K67W6HH"}}}},{"type":"userOrganization","id":"01KMXSPN79RWG4E1W995WTFDG9","attributes":{"deletedAt":null,"createdAt":"2026-03-29T21:58:48.809464Z","lastUpdatedAt":"2026-03-29T21:58:53.224608Z","inviteAcceptedAt":"2026-03-29T21:58:52.984250Z","inviteIssuanceHistory":[{"issued_at":"2026-03-29T21:58:52.981239Z","issued_by":null,"token_max_age":14}],"inviteIssuedAt":"2026-03-29T21:58:52.981239Z","inviteStatus":"accepted","inviteTokenMaxAge":14,"inviteUserEmail":"christopher.thomas@example.com","inviteUserFirstName":"Christopher","inviteUserLastName":"Thomas","jobTitle":"Firefighter","role":"standard"},"relationships":{"inviteIssuedBy":{"data":null},"organization":{"data":{"type":"organization","id":"01KMXSPB0AXKYMQK636TXNNWR4"}},"user":{"data":{"type":"user","id":"01KMXSPS9SQX29S128BCPZFKW2"}}}},{"type":"userOrganization","id":"01KMXSPN7FP2GEJW0ABS644WKH","attributes":{"deletedAt":null,"createdAt":"2026-03-29T21:58:48.815470Z","lastUpdatedAt":"2026-03-29T21:58:53.953570Z","inviteAcceptedAt":"2026-03-29T21:58:53.728997Z","inviteIssuanceHistory":[{"issued_at":"2026-03-29T21:58:53.726360Z","issued_by":null,"token_max_age":14}],"inviteIssuedAt":"2026-03-29T21:58:53.726360Z","inviteStatus":"accepted","inviteTokenMaxAge":14,"inviteUserEmail":"daniel.jackson@example.com","inviteUserFirstName":"Daniel","inviteUserLastName":"Jackson","jobTitle":"Fire Engineer","role":"standard"},"relationships":{"inviteIssuedBy":{"data":null},"organization":{"data":{"type":"organization","id":"01KMXSPB0AXKYMQK636TXNNWR4"}},"user":{"data":{"type":"user","id":"01KMXSPT12PB189CPCT7SN3XQR"}}}},{"type":"userOrganization","id":"01KMXSPN6P17REVPA59KGMKJ0T","attributes":{"deletedAt":null,"createdAt":"2026-03-29T21:58:48.790507Z","lastUpdatedAt":"2026-03-29T21:58:51.012809Z","inviteAcceptedAt":"2026-03-29T21:58:50.773255Z","inviteIssuanceHistory":[{"issued_at":"2026-03-29T21:58:50.770956Z","issued_by":null,"token_max_age":14}],"inviteIssuedAt":"2026-03-29T21:58:50.770956Z","inviteStatus":"accepted","inviteTokenMaxAge":14,"inviteUserEmail":"david.kim@example.com","inviteUserFirstName":"David","inviteUserLastName":"Kim","jobTitle":"Deputy Chief","role":"admin"},"relationships":{"inviteIssuedBy":{"data":null},"organization":{"data":{"type":"organization","id":"01KMXSPB0AXKYMQK636TXNNWR4"}},"user":{"data":{"type":"user","id":"01KMXSPQ4PD75WFAV7C81PMBD9"}}}},{"type":"userOrganization","id":"01KMXSPN8A6N7Q640EH9NX42NB","attributes":{"deletedAt":null,"createdAt":"2026-03-29T21:58:48.842302Z","lastUpdatedAt":"2026-03-29T21:58:57.337325Z","inviteAcceptedAt":"2026-03-29T21:58:57.111101Z","inviteIssuanceHistory":[{"issued_at":"2026-03-29T21:58:57.108319Z","issued_by":null,"token_max_age":14}],"inviteIssuedAt":"2026-03-29T21:58:57.108319Z","inviteStatus":"accepted","inviteTokenMaxAge":14,"inviteUserEmail":"donna.rodriguez@example.com","inviteUserFirstName":"Donna","inviteUserLastName":"Rodriguez","jobTitle":"Paramedic","role":"standard"},"relationships":{"inviteIssuedBy":{"data":null},"organization":{"data":{"type":"organization","id":"01KMXSPB0AXKYMQK636TXNNWR4"}},"user":{"data":{"type":"user","id":"01KMXSPXARCKPQZFF0WKQ03SQJ"}}}},{"type":"userOrganization","id":"01KMXSPN9GSWPEEXZ7T4K9FNJE","attributes":{"deletedAt":null,"createdAt":"2026-03-29T21:58:48.880817Z","lastUpdatedAt":"2026-03-29T21:59:00.948453Z","inviteAcceptedAt":"2026-03-29T21:59:00.705568Z","inviteIssuanceHistory":[{"issued_at":"2026-03-29T21:59:00.702395Z","issued_by":null,"token_max_age":14}],"inviteIssuedAt":"2026-03-29T21:59:00.702395Z","inviteStatus":"accepted","inviteTokenMaxAge":14,"inviteUserEmail":"dorothy.lopez@example.com","inviteUserFirstName":"Dorothy","inviteUserLastName":"Lopez","jobTitle":"Paramedic","role":"standard"},"relationships":{"inviteIssuedBy":{"data":null},"organization":{"data":{"type":"organization","id":"01KMXSPB0AXKYMQK636TXNNWR4"}},"user":{"data":{"type":"user","id":"01KMXSQ0V26GQ4RR7J7GZG7AC5"}}}},{"type":"userOrganization","id":"01KMXSPN91NTPSVNNM05Z2T3HD","attributes":{"deletedAt":null,"createdAt":"2026-03-29T21:58:48.866070Z","lastUpdatedAt":"2026-03-29T21:58:59.845446Z","inviteAcceptedAt":"2026-03-29T21:58:59.621180Z","inviteIssuanceHistory":[{"issued_at":"2026-03-29T21:58:59.618228Z","issued_by":null,"token_max_age":14}],"inviteIssuedAt":"2026-03-29T21:58:59.618228Z","inviteStatus":"accepted","inviteTokenMaxAge":14,"inviteUserEmail":"edward.hernandez@example.com","inviteUserFirstName":"Edward","inviteUserLastName":"Hernandez","jobTitle":"Fire Captain","role":"standard"},"relationships":{"inviteIssuedBy":{"data":null},"organization":{"data":{"type":"organization","id":"01KMXSPB0AXKYMQK636TXNNWR4"}},"user":{"data":{"type":"user","id":"01KMXSPZS69NAHV4X2SQBX88H0"}}}},{"type":"userOrganization","id":"01KMXSPN9Q1Q2H40PJ4S7FE7DQ","attributes":{"deletedAt":null,"createdAt":"2026-03-29T21:58:48.887546Z","lastUpdatedAt":"2026-03-29T21:59:01.662402Z","inviteAcceptedAt":"2026-03-29T21:59:01.434729Z","inviteIssuanceHistory":[{"issued_at":"2026-03-29T21:59:01.432158Z","issued_by":null,"token_max_age":14}],"inviteIssuedAt":"2026-03-29T21:59:01.432158Z","inviteStatus":"accepted","inviteTokenMaxAge":14,"inviteUserEmail":"helen.scott@example.com","inviteUserFirstName":"Helen","inviteUserLastName":"Scott","jobTitle":"Lieutenant","role":"standard"},"relationships":{"inviteIssuedBy":{"data":null},"organization":{"data":{"type":"organization","id":"01KMXSPB0AXKYMQK636TXNNWR4"}},"user":{"data":{"type":"user","id":"01KMXSQ1HW41HC8VS4JAWKJYYZ"}}}},{"type":"userOrganization","id":"01KMXSPN6GRZQXY0040C2M0C36","attributes":{"deletedAt":null,"createdAt":"2026-03-29T21:58:48.784573Z","lastUpdatedAt":"2026-03-29T21:58:50.276368Z","inviteAcceptedAt":"2026-03-29T21:58:50.048992Z","inviteIssuanceHistory":[{"issued_at":"2026-03-29T21:58:50.046663Z","issued_by":null,"token_max_age":14}],"inviteIssuedAt":"2026-03-29T21:58:50.046663Z","inviteStatus":"accepted","inviteTokenMaxAge":14,"inviteUserEmail":"james.wilson@example.com","inviteUserFirstName":"James","inviteUserLastName":"Wilson","jobTitle":"Fire Chief","role":"admin"},"relationships":{"inviteIssuedBy":{"data":null},"organization":{"data":{"type":"organization","id":"01KMXSPB0AXKYMQK636TXNNWR4"}},"user":{"data":{"type":"user","id":"01KMXSPPE2SRWT2YC67381NJ7G"}}}},{"type":"userOrganization","id":"01KMXSPN6SGGHAA6GNQ79VPSA1","attributes":{"deletedAt":null,"createdAt":"2026-03-29T21:58:48.793319Z","lastUpdatedAt":"2026-03-29T21:58:51.346535Z","inviteAcceptedAt":"2026-03-29T21:58:51.121852Z","inviteIssuanceHistory":[{"issued_at":"2026-03-29T21:58:51.119270Z","issued_by":null,"token_max_age":14}],"inviteIssuedAt":"2026-03-29T21:58:51.119270Z","inviteStatus":"accepted","inviteTokenMaxAge":14,"inviteUserEmail":"jennifer.brown@example.com","inviteUserFirstName":"Jennifer","inviteUserLastName":"Brown","jobTitle":"Paramedic","role":"standard"},"relationships":{"inviteIssuedBy":{"data":null},"organization":{"data":{"type":"organization","id":"01KMXSPB0AXKYMQK636TXNNWR4"}},"user":{"data":{"type":"user","id":"01KMXSPQFKGPQ64AGB0X0WJS0R"}}}},{"type":"userOrganization","id":"01KMXSPN95E2E910MGVRVME1E6","attributes":{"deletedAt":null,"createdAt":"2026-03-29T21:58:48.869848Z","lastUpdatedAt":"2026-03-29T21:59:00.202632Z","inviteAcceptedAt":"2026-03-29T21:58:59.976398Z","inviteIssuanceHistory":[{"issued_at":"2026-03-29T21:58:59.974040Z","issued_by":null,"token_max_age":14}],"inviteIssuedAt":"2026-03-29T21:58:59.974040Z","inviteStatus":"accepted","inviteTokenMaxAge":14,"inviteUserEmail":"jessica.king@example.com","inviteUserFirstName":"Jessica","inviteUserLastName":"King","jobTitle":"","role":"standard"},"relationships":{"inviteIssuedBy":{"data":null},"organization":{"data":{"type":"organization","id":"01KMXSPB0AXKYMQK636TXNNWR4"}},"user":{"data":{"type":"user","id":"01KMXSQ049TY979F78RECF8AGY"}}}},{"type":"userOrganization","id":"01KMXSPN7WC8AVPNFWN9KF7N4K","attributes":{"deletedAt":null,"createdAt":"2026-03-29T21:58:48.828310Z","lastUpdatedAt":"2026-03-29T21:58:55.473145Z","inviteAcceptedAt":"2026-03-29T21:58:55.247235Z","inviteIssuanceHistory":[{"issued_at":"2026-03-29T21:58:55.244198Z","issued_by":null,"token_max_age":14}],"inviteIssuedAt":"2026-03-29T21:58:55.244198Z","inviteStatus":"accepted","inviteTokenMaxAge":14,"inviteUserEmail":"joseph.thompson@example.com","inviteUserFirstName":"Joseph","inviteUserLastName":"Thompson","jobTitle":"Fire Captain","role":"standard"},"relationships":{"inviteIssuedBy":{"data":null},"organization":{"data":{"type":"organization","id":"01KMXSPB0AXKYMQK636TXNNWR4"}},"user":{"data":{"type":"user","id":"01KMXSPVGG5VSPZ7SCZCXQ6AZ8"}}}},{"type":"userOrganization","id":"01KMXSPN7JNWPC8VZZ8ZNPPTZS","attributes":{"deletedAt":null,"createdAt":"2026-03-29T21:58:48.818747Z","lastUpdatedAt":"2026-03-29T21:58:54.344520Z","inviteAcceptedAt":"2026-03-29T21:58:54.116016Z","inviteIssuanceHistory":[{"issued_at":"2026-03-29T21:58:54.113012Z","issued_by":null,"token_max_age":14}],"inviteIssuedAt":"2026-03-29T21:58:54.113012Z","inviteStatus":"accepted","inviteTokenMaxAge":14,"inviteUserEmail":"karen.white@example.com","inviteUserFirstName":"Karen","inviteUserLastName":"White","jobTitle":"EMT","role":"standard"},"relationships":{"inviteIssuedBy":{"data":null},"organization":{"data":{"type":"organization","id":"01KMXSPB0AXKYMQK636TXNNWR4"}},"user":{"data":{"type":"user","id":"01KMXSPTD5P5GPE3S3X1BR4T2H"}}}},{"type":"userOrganization","id":"01KMXVYMJ65QPNRH6HR01KWD32","attributes":{"deletedAt":null,"createdAt":"2026-03-29T22:38:07.430488Z","lastUpdatedAt":"2026-03-29T22:38:09.242758Z","inviteAcceptedAt":"2026-03-29T22:38:09.225048Z","inviteIssuanceHistory":[{"issued_at":"2026-03-29T22:38:07.536134Z","issued_by":"01KMXSPN641RE5PVTB1EF1HY1T","token_max_age":14}],"inviteIssuedAt":"2026-03-29T22:38:07.536134Z","inviteStatus":"accepted","inviteTokenMaxAge":14,"inviteUserEmail":"kevin.davis@example2.com","inviteUserFirstName":"Kevin","inviteUserLastName":"Davis","jobTitle":"","role":"standard"},"relationships":{"inviteIssuedBy":{"data":{"type":"userOrganization","id":"01KMXSPN641RE5PVTB1EF1HY1T"}},"organization":{"data":{"type":"organization","id":"01KMXSPB0AXKYMQK636TXNNWR4"}},"user":{"data":{"type":"user","id":"01KMXSQBFNQ1GVPR0JS4TZGVGB"}}}},{"type":"userOrganization","id":"01KMXSPN8QHVJV9DXCFRGYHX16","attributes":{"deletedAt":null,"createdAt":"2026-03-29T21:58:48.855850Z","lastUpdatedAt":"2026-03-29T21:58:58.749842Z","inviteAcceptedAt":"2026-03-29T21:58:58.526909Z","inviteIssuanceHistory":[{"issued_at":"2026-03-29T21:58:58.524867Z","issued_by":null,"token_max_age":14}],"inviteIssuedAt":"2026-03-29T21:58:58.524867Z","inviteStatus":"accepted","inviteTokenMaxAge":14,"inviteUserEmail":"laura.hall@example.com","inviteUserFirstName":"Laura","inviteUserLastName":"Hall","jobTitle":"Paramedic","role":"standard"},"relationships":{"inviteIssuedBy":{"data":null},"organization":{"data":{"type":"organization","id":"01KMXSPB0AXKYMQK636TXNNWR4"}},"user":{"data":{"type":"user","id":"01KMXSPYPZGXTSC7CVG3J71Y74"}}}},{"type":"userOrganization","id":"01KMXSPN6ZBVS7QW5WSCA1MJ63","attributes":{"deletedAt":null,"createdAt":"2026-03-29T21:58:48.799507Z","lastUpdatedAt":"2026-03-29T21:58:52.106679Z","inviteAcceptedAt":"2026-03-29T21:58:51.867247Z","inviteIssuanceHistory":[{"issued_at":"2026-03-29T21:58:51.864560Z","issued_by":null,"token_max_age":14}],"inviteIssuedAt":"2026-03-29T21:58:51.864560Z","inviteStatus":"accepted","inviteTokenMaxAge":14,"inviteUserEmail":"lisa.martinez@example.com","inviteUserFirstName":"Lisa","inviteUserLastName":"Martinez","jobTitle":"EMT","role":"standard"},"relationships":{"inviteIssuedBy":{"data":null},"organization":{"data":{"type":"organization","id":"01KMXSPB0AXKYMQK636TXNNWR4"}},"user":{"data":{"type":"user","id":"01KMXSPR6X9GFHYG9CDPRF2JP1"}}}}],"included":[{"type":"user","id":"01KMXSPPE2SRWT2YC67381NJ7G","attributes":{"lastLogin":null,"deletedAt":null,"createdAt":"2026-03-29T21:58:50.050556Z","lastUpdatedAt":"2026-03-29T21:58:50.275004Z","email":"james.wilson@example.com","firstName":"James","isActive":true,"isStaff":false,"lastName":"Wilson"}},{"type":"user","id":"01KMXSPQ4PD75WFAV7C81PMBD9","attributes":{"lastLogin":null,"deletedAt":null,"createdAt":"2026-03-29T21:58:50.774764Z","lastUpdatedAt":"2026-03-29T21:58:51.011581Z","email":"david.kim@example.com","firstName":"David","isActive":true,"isStaff":false,"lastName":"Kim"}},{"type":"user","id":"01KMXSPQFKGPQ64AGB0X0WJS0R","attributes":{"lastLogin":null,"deletedAt":null,"createdAt":"2026-03-29T21:58:51.123182Z","lastUpdatedAt":"2026-03-29T21:58:51.345359Z","email":"jennifer.brown@example.com","firstName":"Jennifer","isActive":true,"isStaff":false,"lastName":"Brown"}},{"type":"user","id":"01KMXSPR6X9GFHYG9CDPRF2JP1","attributes":{"lastLogin":null,"deletedAt":null,"createdAt":"2026-03-29T21:58:51.869239Z","lastUpdatedAt":"2026-03-29T21:58:52.105339Z","email":"lisa.martinez@example.com","firstName":"Lisa","isActive":true,"isStaff":false,"lastName":"Martinez"}},{"type":"user","id":"01KMXSPS9SQX29S128BCPZFKW2","attributes":{"lastLogin":null,"deletedAt":null,"createdAt":"2026-03-29T21:58:52.985311Z","lastUpdatedAt":"2026-03-29T21:58:53.223236Z","email":"christopher.thomas@example.com","firstName":"Christopher","isActive":true,"isStaff":false,"lastName":"Thomas"}},{"type":"user","id":"01KMXSPT12PB189CPCT7SN3XQR","attributes":{"lastLogin":null,"deletedAt":null,"createdAt":"2026-03-29T21:58:53.730266Z","lastUpdatedAt":"2026-03-29T21:58:53.952156Z","email":"daniel.jackson@example.com","firstName":"Daniel","isActive":true,"isStaff":false,"lastName":"Jackson"}},{"type":"user","id":"01KMXSPTD5P5GPE3S3X1BR4T2H","attributes":{"lastLogin":null,"deletedAt":null,"createdAt":"2026-03-29T21:58:54.117287Z","lastUpdatedAt":"2026-03-29T21:58:54.342909Z","email":"karen.white@example.com","firstName":"Karen","isActive":true,"isStaff":false,"lastName":"White"}},{"type":"user","id":"01KMXSPV4C4EFZTJ0WGBAXFE1G","attributes":{"lastLogin":null,"deletedAt":null,"createdAt":"2026-03-29T21:58:54.860521Z","lastUpdatedAt":"2026-03-29T21:58:55.104352Z","email":"betty.martin@example.com","firstName":"Betty","isActive":true,"isStaff":false,"lastName":"Martin"}},{"type":"user","id":"01KMXSPVGG5VSPZ7SCZCXQ6AZ8","attributes":{"lastLogin":null,"deletedAt":null,"createdAt":"2026-03-29T21:58:55.248736Z","lastUpdatedAt":"2026-03-29T21:58:55.471946Z","email":"joseph.thompson@example.com","firstName":"Joseph","isActive":true,"isStaff":false,"lastName":"Thompson"}},{"type":"user","id":"01KMXSPWKMGJNF3EA0EPFE4VXB","attributes":{"lastLogin":null,"deletedAt":null,"createdAt":"2026-03-29T21:58:56.372966Z","lastUpdatedAt":"2026-03-29T21:58:56.603582Z","email":"ashley.robinson@example.com","firstName":"Ashley","isActive":true,"isStaff":false,"lastName":"Robinson"}},{"type":"user","id":"01KMXSPWZDWCM4ZJAS6K67W6HH","attributes":{"lastLogin":null,"deletedAt":null,"createdAt":"2026-03-29T21:58:56.749952Z","lastUpdatedAt":"2026-03-29T21:58:56.968035Z","email":"charles.clark@example.com","firstName":"Charles","isActive":true,"isStaff":false,"lastName":"Clark"}},{"type":"user","id":"01KMXSPXARCKPQZFF0WKQ03SQJ","attributes":{"lastLogin":null,"deletedAt":null,"createdAt":"2026-03-29T21:58:57.112495Z","lastUpdatedAt":"2026-03-29T21:58:57.336135Z","email":"donna.rodriguez@example.com","firstName":"Donna","isActive":true,"isStaff":false,"lastName":"Rodriguez"}},{"type":"user","id":"01KMXSPYPZGXTSC7CVG3J71Y74","attributes":{"lastLogin":null,"deletedAt":null,"createdAt":"2026-03-29T21:58:58.527979Z","lastUpdatedAt":"2026-03-29T21:58:58.748786Z","email":"laura.hall@example.com","firstName":"Laura","isActive":true,"isStaff":false,"lastName":"Hall"}},{"type":"user","id":"01KMXSPZS69NAHV4X2SQBX88H0","attributes":{"lastLogin":null,"deletedAt":null,"createdAt":"2026-03-29T21:58:59.622442Z","lastUpdatedAt":"2026-03-29T21:58:59.844270Z","email":"edward.hernandez@example.com","firstName":"Edward","isActive":true,"isStaff":false,"lastName":"Hernandez"}},{"type":"user","id":"01KMXSQ049TY979F78RECF8AGY","attributes":{"lastLogin":null,"deletedAt":null,"createdAt":"2026-03-29T21:58:59.978017Z","lastUpdatedAt":"2026-03-29T21:59:00.201297Z","email":"jessica.king@example.com","firstName":"Jessica","isActive":true,"isStaff":false,"lastName":"King"}},{"type":"user","id":"01KMXSQ0F0NTEMGJEMKTKC9TVG","attributes":{"lastLogin":null,"deletedAt":null,"createdAt":"2026-03-29T21:59:00.320273Z","lastUpdatedAt":"2026-03-29T21:59:00.560710Z","email":"brian.wright@example.com","firstName":"Brian","isActive":true,"isStaff":false,"lastName":"Wright"}},{"type":"user","id":"01KMXSQ0V26GQ4RR7J7GZG7AC5","attributes":{"lastLogin":null,"deletedAt":null,"createdAt":"2026-03-29T21:59:00.706861Z","lastUpdatedAt":"2026-03-29T21:59:00.946627Z","email":"dorothy.lopez@example.com","firstName":"Dorothy","isActive":true,"isStaff":false,"lastName":"Lopez"}},{"type":"user","id":"01KMXSQ1HW41HC8VS4JAWKJYYZ","attributes":{"lastLogin":null,"deletedAt":null,"createdAt":"2026-03-29T21:59:01.436611Z","lastUpdatedAt":"2026-03-29T21:59:01.660222Z","email":"helen.scott@example.com","firstName":"Helen","isActive":true,"isStaff":false,"lastName":"Scott"}},{"type":"user","id":"01KMXSQBFNQ1GVPR0JS4TZGVGB","attributes":{"lastLogin":"2026-03-29T22:38:11.313311Z","deletedAt":null,"createdAt":"2026-03-29T21:59:11.606116Z","lastUpdatedAt":"2026-03-29T22:38:09.231924Z","email":"kevin.davis@example2.com","firstName":"Kevin","isActive":true,"isStaff":false,"lastName":"Davis"}}],"meta":{"pagination":{"page":1,"pages":3,"count":45}}}